{
  "builders": [
    {
      "communicator": "ssh",
      "source_path": "generic/centos7",
      "provider": "virtualbox",
      "add_force": true,
      "type": "vagrant"
    }
  ],
  "provisioners": [
    {
      "type": "shell",
      "execute_command": "echo 'vagrant' | {{.Vars}} sudo -S -E bash '{{.Path}}'",
      "script": "scripts/setup.sh"
    }
  ]
}
